-- Merging decision tree log ---
manifest
ADDED from E:\Android\FlutterSdk\.pub-cache\hosted\pub.dartlang.org\vibration-1.5.0\android\src\main\AndroidManifest.xml:1:1-5:12
INJECTED from E:\Android\FlutterSdk\.pub-cache\hosted\pub.dartlang.org\vibration-1.5.0\android\src\main\AndroidManifest.xml:1:1-5:12
INJECTED from E:\Android\FlutterSdk\.pub-cache\hosted\pub.dartlang.org\vibration-1.5.0\android\src\main\AndroidManifest.xml:1:1-5:12
	package
		ADDED from E:\Android\FlutterSdk\.pub-cache\hosted\pub.dartlang.org\vibration-1.5.0\android\src\main\AndroidManifest.xml:2:5-41
		INJECTED from E:\Android\FlutterSdk\.pub-cache\hosted\pub.dartlang.org\vibration-1.5.0\android\src\main\AndroidManifest.xml
		INJECTED from E:\Android\FlutterSdk\.pub-cache\hosted\pub.dartlang.org\vibration-1.5.0\android\src\main\AndroidManifest.xml
	xmlns:android
		ADDED from E:\Android\FlutterSdk\.pub-cache\hosted\pub.dartlang.org\vibration-1.5.0\android\src\main\AndroidManifest.xml:1:11-69
uses-permission#android.permission.VIBRATE
ADDED from E:\Android\FlutterSdk\.pub-cache\hosted\pub.dartlang.org\vibration-1.5.0\android\src\main\AndroidManifest.xml:4:5-65
	android:name
		ADDED from E:\Android\FlutterSdk\.pub-cache\hosted\pub.dartlang.org\vibration-1.5.0\android\src\main\AndroidManifest.xml:4:22-63
uses-sdk
INJECTED from E:\Android\FlutterSdk\.pub-cache\hosted\pub.dartlang.org\vibration-1.5.0\android\src\main\AndroidManifest.xml reason: use-sdk injection requested
INJECTED from E:\Android\FlutterSdk\.pub-cache\hosted\pub.dartlang.org\vibration-1.5.0\android\src\main\AndroidManifest.xml
INJECTED from E:\Android\FlutterSdk\.pub-cache\hosted\pub.dartlang.org\vibration-1.5.0\android\src\main\AndroidManifest.xml
	android:minSdkVersion
		INJECTED from E:\Android\FlutterSdk\.pub-cache\hosted\pub.dartlang.org\vibration-1.5.0\android\src\main\AndroidManifest.xml
		ADDED from E:\Android\FlutterSdk\.pub-cache\hosted\pub.dartlang.org\vibration-1.5.0\android\src\main\AndroidManifest.xml
		INJECTED from E:\Android\FlutterSdk\.pub-cache\hosted\pub.dartlang.org\vibration-1.5.0\android\src\main\AndroidManifest.xml
